[
  { "_id": 1, "total": 5, "count": 2 },
  { "_id": 2, "total": 5, "count": 1 },
  { "_id": 3, "total": 43, "count": 6 },
  { "_id": 4, "total": 50, "count": 2 },
  { "_id": 5, "total": 20, "count": 3 }
]
